<svg width="46" height="46" viewBox="0 0 46 46" fill="none" xmlns="http://www.w3.org/2000/svg">
<circle cx="23" cy="23" r="22.5" stroke="#DEDEE2"/>
<path d="M19 32L27 23L19 14" stroke="#B6BCC2" stroke-width="2" stroke-linecap="round" stroke-linejoin="round"/>
</svg>
