<svg width="36" height="40" viewBox="0 0 36 40" fill="none" xmlns="http://www.w3.org/2000/svg">
<path d="M30.9037 2.34375C30.0502 2.34375 29.2501 2.57414 28.56 2.97437V1.17188C28.56 0.524687 28.0353 0 27.3881 0H8.63812C7.99086 0 7.46617 0.524687 7.46617 1.17188V2.98867C6.77063 2.57953 5.96133 2.34375 5.09766 2.34375C2.51297 2.34375 0.410156 4.44656 0.410156 7.03125C0.410156 9.00273 0.994375 10.9077 2.09961 12.5402C3.98117 15.3193 6.30141 16.0405 8.22133 16.8084C9.32836 19.5653 11.567 21.7502 14.3596 22.7846L13.4955 28.2812H13.3256C11.3871 28.2812 9.81 29.8584 9.81 31.7969V37.6562H8.63812C7.99094 37.6562 7.46625 38.1809 7.46625 38.8281C7.46625 39.4753 7.99094 40 8.63812 40H27.3881C28.0353 40 28.56 39.4753 28.56 38.8281C28.56 38.1809 28.0353 37.6562 27.3881 37.6562H26.2162V31.7969C26.2162 29.8584 24.6391 28.2812 22.7006 28.2812H22.5308L21.6667 22.7847C24.4634 21.7487 26.7045 19.5591 27.8099 16.7966C29.6236 16.0711 32.001 15.3478 33.9019 12.5402C35.0071 10.9077 35.5913 9.00266 35.5913 7.03125C35.5913 4.44656 33.4884 2.34375 30.9037 2.34375ZM7.4575 13.9787C4.60016 12.8357 2.75391 10.1087 2.75391 7.03125C2.75391 5.73891 3.80531 4.6875 5.09766 4.6875C6.39 4.6875 7.44141 5.73891 7.44141 7.03125C7.44141 7.11367 7.45008 7.19398 7.46625 7.27156V12.8906C7.46625 13.2673 7.48648 13.6392 7.52523 14.0058L7.4575 13.9787ZM23.8725 37.6562H12.1537V35.3125H23.8725V37.6562ZM22.7006 30.625C23.3468 30.625 23.8725 31.1507 23.8725 31.7969V32.9688H12.1537V31.7969C12.1537 31.1507 12.6795 30.625 13.3256 30.625C13.9614 30.625 21.2096 30.625 22.7006 30.625ZM15.868 28.2812L16.6434 23.3487C17.0919 23.4071 17.549 23.4375 18.0131 23.4375C18.4773 23.4375 18.9344 23.407 19.3828 23.3487L20.1583 28.2812H15.868ZM26.2162 12.8906C26.2162 17.4138 22.5363 21.0938 18.0131 21.0938C13.4899 21.0938 9.81 17.4138 9.81 12.8906V7.03125H26.2162V12.8906ZM26.2162 4.6875H9.81V2.34375H26.2162V4.6875ZM28.5438 13.9787L28.5022 13.9953C28.5402 13.6322 28.5599 13.2637 28.5599 12.8906V7.03125C28.56 5.73891 29.6114 4.6875 30.9037 4.6875C32.1961 4.6875 33.2475 5.73891 33.2475 7.03125C33.2475 10.1087 31.4012 12.8358 28.5438 13.9787Z" fill="#333333"/>
</svg>
