<svg width="18" height="14" viewBox="0 0 18 14" fill="none" xmlns="http://www.w3.org/2000/svg">
<path d="M16.2218 0.0975026L1.44681 5.795C0.438474 6.2 0.444308 6.7625 1.26181 7.01333L5.05514 8.19667L13.8318 2.65917C14.2468 2.40667 14.626 2.5425 14.3143 2.81917L7.20347 9.23667H7.20181L7.20347 9.2375L6.94181 13.1475C7.32514 13.1475 7.49431 12.9717 7.70931 12.7642L9.55181 10.9725L13.3843 13.8033C14.091 14.1925 14.5985 13.9925 14.7743 13.1492L17.2901 1.2925C17.5476 0.260003 16.896 -0.207497 16.2218 0.0975026Z" fill="#9D7247"/>
</svg>
